[gd_resource type="Resource" script_class="Pawn_Info" load_steps=2 format=3 uid="uid://ritfme3e16jf"]

[ext_resource type="Script" path="res://src/pawn_info.gd" id="1_tvw74"]

[resource]
script = ExtResource("1_tvw74")
Class_name = "Cleric"
Sprite = "res://assets/sprites/characters/base_iso_sprite_sheet.png"
Health = 25
Special = 30
Speed = 2.0
Movement = 4
Jump = 1.0
Att_Range = 3
Att_Damage = 8
Skills = Array[int]([])
